{
    "/js/app.js": "/js/app.js",
    "/css/app.css": "/css/app.css",
    "/js/buttons_bar.js": "/js/buttons_bar.js",
    "/js/create_or_show.js": "/js/create_or_show.js",
    "/js/customer_create_or_update.js": "/js/customer_create_or_update.js",
    "/js/document_create_or_update.js": "/js/document_create_or_update.js",
    "/js/my_profile.js": "/js/my_profile.js",
    "/js/permission_show_document.js": "/js/permission_show_document.js",
    "/js/show_contract.js": "/js/show_contract.js",
    "/js/signature_document.js": "/js/signature_document.js",
    "/js/table_data.js": "/js/table_data.js"
}
